<script type="text/javascript">
	jQuery(function($)
	{
	  $('li.subdrop').mouseenter(function(e){
		var classList = $(this).attr('class').split(/\s+/);
	   $.each(classList, function(index, item) {
      if ($('.grid-sub-megamenu').hasClass(item)) 
	  {
        $('.grid-sub-megamenu.'+item).first().css('display','flex');
		$('.grid-sub-megamenu.'+item).first().mouseenter(function(e){
			$(this).css('display','flex');
		});
		$('.grid-sub-megamenu.'+item).first().mouseleave(function(e){
			$(this).css('display','none');
		});
		$('li.menu-item').mouseenter(function(e){
			if(!$(this).hasClass(item))
			{
				$('.grid-sub-megamenu.'+item).first().css('display','none');
			}
		})
       }
      });
	});
	})
	</script>