if (strtoupper($_SERVER['REQUEST_METHOD']) === 'POST') 
{
    $body = file_get_contents("php://input");
    $body = stripslashes( $body );
    $out = json_decode($body, true);
    if(is_array($out)){}
}
