  $user = wp_get_current_user();
       $user_roles=$user->roles;
       echo $user_roles[0];
       if($user_roles[0]!="administrator" && $user_roles[0]!="editor" && $user_roles[0]!="author")
       {
}